Generator from American Community Survey Geodatabases • geogenr
…
sf::st_layers(file)
#> Driver: GPKG 
#> Available layers:
#>   layer_name geometry_type features fields crs_name
#> 1       data Multi Polygon       12   1453    NAD83
#> 2   metadata            NA     1436     12     <NA>
#> 3     origin            NA        2      6     <NA>

This format also allows us to perform simple queries using the metadata and the geographic layer.

metadata <- geo |>
  get_metadata()

metadata
#> # A tibble: 1,436 × 12
#>    variable year  Short_Name Full_Name   report subreport report_var report_desc
#>    <chr>    <chr> <chr>      <chr>       <chr>  <chr>          <int> <chr>      
#>  1 V0001    2020  B01001Ae1  Sex By Age… B01001 A                  1 Sex By Age…
#>  2 V0002    2020  B01001Ae10 Sex By Age… B01001 A                 10 Sex By Age…
#>  3 V0003    2020  B01001Ae11 Sex By Age… B01001 A                 11 Sex By Age…
#>  4 V0004    2020  B01001Ae12 Sex By Age… B01001 A                 12 Sex By Age…
#>  5 V0005    2020  B01001Ae13 Sex By Age… B01001 A                 13 Sex By Age…
#>  6 V0006    2020  B01001Ae14 Sex By Age… B01001 A                 14 Sex By Age…
#>  7 V0007    2020  B01001Ae15 Sex By Age… B01001 A                 15 Sex By Age…
#>  8 V0008    2020  B01001Ae16 Sex By Age… B01001 A                 16 Sex By Age…
#>  9 V0009    2020  B01001Ae17 Sex By Age… B01001 A                 17 Sex By Age…
#> 10 V0010    2020  B01001Ae18 Sex By Age… B01001 A                 18 Sex By Age…
#> # ℹ 1,426 more rows
#> # ℹ 4 more variables: measure <chr>, item1 <chr>, item2 <chr>, group <chr>
…
